%!PS-Adobe-3.0 EPSF-3.0
%%Creator: MATLAB, The MathWorks, Inc. Version 8.1.0.604 (R2013a). Operating System: Linux 3.13.0-77-generic #121-Ubuntu SMP Wed Jan 20 10:50:42 UTC 2016 x86_64.
%%Title: /home/isit/workspace/DefoObjInWild/results_final/simple/prec_recall_5000iter.eps
%%CreationDate: 05/21/2016  17:36:43
%%DocumentNeededFonts: Helvetica
%%DocumentProcessColors: Cyan Magenta Yellow Black
%%LanguageLevel: 2
%%Pages: 1
%%BoundingBox:    81   227   529   564
%%EndComments

%%BeginProlog
% MathWorks dictionary
/MathWorks 160 dict begin
% definition operators
/bdef {bind def} bind def
/ldef {load def} bind def
/xdef {exch def} bdef
/xstore {exch store} bdef
% operator abbreviations
/c  /clip ldef
/cc /concat ldef
/cp /closepath ldef
/gr /grestore ldef
/gs /gsave ldef
/mt /moveto ldef
/np /newpath ldef
/cm /currentmatrix ldef
/sm /setmatrix ldef
/rm /rmoveto ldef
/rl /rlineto ldef
/s {show newpath} bdef
/sc {setcmykcolor} bdef
/sr /setrgbcolor ldef
/sg /setgray ldef
/w /setlinewidth ldef
/j /setlinejoin ldef
/cap /setlinecap ldef
/rc {rectclip} bdef
/rf {rectfill} bdef
% page state control
/pgsv () def
/bpage {/pgsv save def} bdef
/epage {pgsv restore} bdef
/bplot /gsave ldef
/eplot {stroke grestore} bdef
% orientation switch
/portraitMode 0 def /landscapeMode 1 def /rotateMode 2 def
% coordinate system mappings
/dpi2point 0 def
% font control
/FontSize 0 def
/FMS {/FontSize xstore findfont [FontSize 0 0 FontSize neg 0 0]
  makefont setfont} bdef
/reencode {exch dup where {pop load} {pop StandardEncoding} ifelse
  exch dup 3 1 roll findfont dup length dict begin
  { 1 index /FID ne {def}{pop pop} ifelse } forall
  /Encoding exch def currentdict end definefont pop} bdef
/isroman {findfont /CharStrings get /Agrave known} bdef
/FMSR {3 1 roll 1 index dup isroman {reencode} {pop pop} ifelse
  exch FMS} bdef
/csm {1 dpi2point div -1 dpi2point div scale neg translate
 dup landscapeMode eq {pop -90 rotate}
  {rotateMode eq {90 rotate} if} ifelse} bdef
% line types: solid, dotted, dashed, dotdash
/SO { [] 0 setdash } bdef
/DO { [.5 dpi2point mul 4 dpi2point mul] 0 setdash } bdef
/DA { [6 dpi2point mul] 0 setdash } bdef
/DD { [.5 dpi2point mul 4 dpi2point mul 6 dpi2point mul 4
  dpi2point mul] 0 setdash } bdef
% macros for lines and objects
/L {lineto stroke} bdef
/MP {3 1 roll moveto 1 sub {rlineto} repeat} bdef
/AP {{rlineto} repeat} bdef
/PDlw -1 def
/W {/PDlw currentlinewidth def setlinewidth} def
/PP {closepath eofill} bdef
/DP {closepath stroke} bdef
/MR {4 -2 roll moveto dup  0 exch rlineto exch 0 rlineto
  neg 0 exch rlineto closepath} bdef
/FR {MR stroke} bdef
/PR {MR fill} bdef
/L1i {{currentfile picstr readhexstring pop} image} bdef
/tMatrix matrix def
/MakeOval {newpath tMatrix currentmatrix pop translate scale
0 0 1 0 360 arc tMatrix setmatrix} bdef
/FO {MakeOval stroke} bdef
/PO {MakeOval fill} bdef
/PD {currentlinewidth 2 div 0 360 arc fill
   PDlw -1 eq not {PDlw w /PDlw -1 def} if} def
/FA {newpath tMatrix currentmatrix pop translate scale
  0 0 1 5 -2 roll arc tMatrix setmatrix stroke} bdef
/PA {newpath tMatrix currentmatrix pop	translate 0 0 moveto scale
  0 0 1 5 -2 roll arc closepath tMatrix setmatrix fill} bdef
/FAn {newpath tMatrix currentmatrix pop translate scale
  0 0 1 5 -2 roll arcn tMatrix setmatrix stroke} bdef
/PAn {newpath tMatrix currentmatrix pop translate 0 0 moveto scale
  0 0 1 5 -2 roll arcn closepath tMatrix setmatrix fill} bdef
/vradius 0 def /hradius 0 def /lry 0 def
/lrx 0 def /uly 0 def /ulx 0 def /rad 0 def
/MRR {/vradius xdef /hradius xdef /lry xdef /lrx xdef /uly xdef
  /ulx xdef newpath tMatrix currentmatrix pop ulx hradius add uly
  vradius add translate hradius vradius scale 0 0 1 180 270 arc 
  tMatrix setmatrix lrx hradius sub uly vradius add translate
  hradius vradius scale 0 0 1 270 360 arc tMatrix setmatrix
  lrx hradius sub lry vradius sub translate hradius vradius scale
  0 0 1 0 90 arc tMatrix setmatrix ulx hradius add lry vradius sub
  translate hradius vradius scale 0 0 1 90 180 arc tMatrix setmatrix
  closepath} bdef
/FRR {MRR stroke } bdef
/PRR {MRR fill } bdef
/MlrRR {/lry xdef /lrx xdef /uly xdef /ulx xdef /rad lry uly sub 2 div def
  newpath tMatrix currentmatrix pop ulx rad add uly rad add translate
  rad rad scale 0 0 1 90 270 arc tMatrix setmatrix lrx rad sub lry rad
  sub translate rad rad scale 0 0 1 270 90 arc tMatrix setmatrix
  closepath} bdef
/FlrRR {MlrRR stroke } bdef
/PlrRR {MlrRR fill } bdef
/MtbRR {/lry xdef /lrx xdef /uly xdef /ulx xdef /rad lrx ulx sub 2 div def
  newpath tMatrix currentmatrix pop ulx rad add uly rad add translate
  rad rad scale 0 0 1 180 360 arc tMatrix setmatrix lrx rad sub lry rad
  sub translate rad rad scale 0 0 1 0 180 arc tMatrix setmatrix
  closepath} bdef
/FtbRR {MtbRR stroke } bdef
/PtbRR {MtbRR fill } bdef
/stri 6 array def /dtri 6 array def
/smat 6 array def /dmat 6 array def
/tmat1 6 array def /tmat2 6 array def /dif 3 array def
/asub {/ind2 exch def /ind1 exch def dup dup
  ind1 get exch ind2 get sub exch } bdef
/tri_to_matrix {
  2 0 asub 3 1 asub 4 0 asub 5 1 asub
  dup 0 get exch 1 get 7 -1 roll astore } bdef
/compute_transform {
  dmat dtri tri_to_matrix tmat1 invertmatrix 
  smat stri tri_to_matrix tmat2 concatmatrix } bdef
/ds {stri astore pop} bdef
/dt {dtri astore pop} bdef
/db {2 copy /cols xdef /rows xdef mul dup 3 mul string
  currentfile 
  3 index 0 eq {/ASCIIHexDecode filter}
  {/ASCII85Decode filter 3 index 2 eq {/RunLengthDecode filter} if }
  ifelse exch readstring pop
  dup 0 3 index getinterval /rbmap xdef
  dup 2 index dup getinterval /gbmap xdef
  1 index dup 2 mul exch getinterval /bbmap xdef pop pop}bdef
/it {gs np dtri aload pop moveto lineto lineto cp c
  cols rows 8 compute_transform 
  rbmap gbmap bbmap true 3 colorimage gr}bdef
/il {newpath moveto lineto stroke}bdef
currentdict end def
%%EndProlog

%%BeginSetup
MathWorks begin

0 cap

end
%%EndSetup

%%Page: 1 1
%%BeginPageSetup
%%PageBoundingBox:    81   227   529   564
MathWorks begin
bpage
%%EndPageSetup

%%BeginObject: obj1
bplot

/dpi2point 12 def
portraitMode 0972 6768 csm

    0     0  5376  4033 rc
85 dict begin %Colortable dictionary
/c0 { 0.000000 0.000000 0.000000 sr} bdef
/c1 { 1.000000 1.000000 1.000000 sr} bdef
/c2 { 0.900000 0.000000 0.000000 sr} bdef
/c3 { 0.000000 0.820000 0.000000 sr} bdef
/c4 { 0.000000 0.000000 0.800000 sr} bdef
/c5 { 0.910000 0.820000 0.320000 sr} bdef
/c6 { 1.000000 0.260000 0.820000 sr} bdef
/c7 { 0.000000 0.820000 0.820000 sr} bdef
c0
1 j
1 sg
   0    0 5377 4034 rf
6 w
0 3288 3287 0 0 -3288 1138 3589 4 MP
PP
-3287 0 0 3288 3287 0 0 -3288 1138 3589 5 MP stroke
4 w
DO
0 sg
1138 3589 mt 1138  301 L
1138  301 mt 1138  301 L
1795 3589 mt 1795  301 L
1795  301 mt 1795  301 L
2453 3589 mt 2453  301 L
2453  301 mt 2453  301 L
3110 3589 mt 3110  301 L
3110  301 mt 3110  301 L
3768 3589 mt 3768  301 L
3768  301 mt 3768  301 L
4425 3589 mt 4425  301 L
4425  301 mt 4425  301 L
1138 3589 mt 4425 3589 L
4425 3589 mt 4425 3589 L
1138 3260 mt 4425 3260 L
4425 3260 mt 4425 3260 L
1138 2931 mt 4425 2931 L
4425 2931 mt 4425 2931 L
1138 2602 mt 4425 2602 L
4425 2602 mt 4425 2602 L
1138 2274 mt 4425 2274 L
4425 2274 mt 4425 2274 L
1138 1945 mt 4425 1945 L
4425 1945 mt 4425 1945 L
1138 1616 mt 4425 1616 L
4425 1616 mt 4425 1616 L
1138 1288 mt 4425 1288 L
4425 1288 mt 4425 1288 L
1138  959 mt 4425  959 L
4425  959 mt 4425  959 L
1138  630 mt 4425  630 L
4425  630 mt 4425  630 L
1138  301 mt 4425  301 L
4425  301 mt 4425  301 L
SO
6 w
1138 3589 mt 4425 3589 L
1138 3589 mt 1138  301 L
1138 3589 mt 1138 3556 L
%%IncludeResource: font Helvetica
/Helvetica /ISOLatin1Encoding 120 FMSR

1105 3734 mt 
(0) s
1795 3589 mt 1795 3556 L
1712 3734 mt 
(0.2) s
2453 3589 mt 2453 3556 L
2370 3734 mt 
(0.4) s
3110 3589 mt 3110 3556 L
3027 3734 mt 
(0.6) s
3768 3589 mt 3768 3556 L
3685 3734 mt 
(0.8) s
4425 3589 mt 4425 3556 L
4392 3734 mt 
(1) s
1138 3589 mt 1171 3589 L
1037 3633 mt 
(0) s
1138 3260 mt 1171 3260 L
 937 3304 mt 
(0.1) s
1138 2931 mt 1171 2931 L
 937 2975 mt 
(0.2) s
1138 2602 mt 1171 2602 L
 937 2646 mt 
(0.3) s
1138 2274 mt 1171 2274 L
 937 2318 mt 
(0.4) s
1138 1945 mt 1171 1945 L
 937 1989 mt 
(0.5) s
1138 1616 mt 1171 1616 L
 937 1660 mt 
(0.6) s
1138 1288 mt 1171 1288 L
 937 1332 mt 
(0.7) s
1138  959 mt 1171  959 L
 937 1003 mt 
(0.8) s
1138  630 mt 1171  630 L
 937  674 mt 
(0.9) s
1138  301 mt 1171  301 L
1037  345 mt 
(1) s
gs 1138 301 3288 3289 rc
24 w
/c8 { 0.000000 0.000000 1.000000 sr} bdef
c8
0 72 6 -2 0 33 7 -2 7 -2 0 11 6 -1 7 -2 
0 11 6 -2 7 -1 0 11 7 -2 6 -1 0 11 7 -1 
0 11 7 -1 6 -2 7 -2 6 -1 0 12 7 -2 7 -2 
6 -1 7 -2 7 -2 0 50 6 -2 7 -1 6 -2 0 13 
7 -1 7 -2 6 -2 7 -1 7 -2 0 13 6 -1 7 -2 
0 14 6 -2 7 -1 7 -2 6 -1 7 -2 7 -1 0 13 
6 -1 7 -2 0 14 6 -1 7 -2 7 -1 6 -2 7 -1 
0 14 7 -1 6 -2 0 15 7 -1 7 -2 6 -1 0 30 
7 -1 0 15 6 -1 7 -1 7 -2 6 -1 7 -1 7 -2 
6 -1 7 -2 6 -1 7 -1 0 16 7 -1 6 -2 7 -1 
7 -2 6 -1 0 17 7 -1 0 17 6 -1 7 -1 7 -2 
6 -1 7 -2 7 -1 6 -1 7 -2 6 -1 0 18 7 -1 
7 -1 0 19 6 -2 7 -1 7 -1 6 -2 7 -1 0 20 
6 -1 7 -2 7 -1 6 -1 7 -1 7 -2 6 -1 7 -1 
6 -2 0 43 7 -1 7 -1 6 -2 7 -1 7 -1 6 -1 
7 -1 6 -1 0 22 7 -1 7 -1 6 -1 7 -1 7 -1 
6 -1 7 -1 7 -2 6 -1 7 -1 6 -1 7 -2 7 -1 
6 -1 7 -1 7 -2 0 26 6 -1 7 -1 6 -1 7 -1 
7 -2 6 -1 7 -1 7 -2 6 -1 0 29 7 -1 6 -1 
7 -2 7 -1 6 -1 7 -1 7 -1 6 -2 7 -1 6 -1 
7 -2 7 -1 0 33 6 -1 7 -1 7 -2 6 -1 7 -1 
6 -1 7 -1 7 -2 6 -1 7 -1 7 -2 6 -1 7 -1 
6 -2 7 -1 7 -2 6 -1 7 -2 7 -2 6 -1 7 -2 
6 -2 7 -2 7 -1 6 -2 7 -2 7 -2 6 -3 7 -2 
0 48 6 -2 7 -1 7 -2 6 -2 7 -1 7 -2 6 -2 
7 -2 7 -2 6 -2 7 -2 6 -2 7 -3 7 -2 6 -2 
7 -3 7 -3 6 -2 7 -3 6 -3 0 69 7 -1 7 -2 
6 -2 7 -2 7 -2 6 -2 7 -2 6 -2 7 -3 7 -2 
6 -3 7 -3 7 -3 6 -4 7 -3 6 -4 7 -4 7 -4 
6 -5 7 -5 7 -5 6 -6 7 -7 6 -7 7 -8 7 -8 
6 -10 7 -11 7 -12 6 -14 7 -15 6 -18 0 253 7 0 
7 0 6 0 7 0 7 0 6 0 7 0 6 0 7 0 
7 0 6 0 7 0 1138 301 260 MP stroke
DA
/c9 { 1.000000 0.000000 0.000000 sr} bdef
c9
3287 0 1138 575 2 MP stroke
gr

24 w
c9
DA
0 sg
2638 3877 mt 
(recall) s
 855 2186 mt  -90 rotate
(precision) s
90 rotate
1522  206 mt 
(PR \(AUC: 43.10%, AP: 43.11%, AP11: 43.35%\)) s
1121 3632 mt 
( ) s
4409  343 mt 
( ) s
SO
6 w
1 sg
0 334 978 0 0 -334 3387 3530 4 MP
PP
-978 0 0 334 978 0 0 -334 3387 3530 5 MP stroke
4 w
DO
SO
6 w
0 sg
3387 3530 mt 4365 3530 L
3387 3196 mt 4365 3196 L
3387 3530 mt 3387 3196 L
4365 3530 mt 4365 3196 L
3387 3530 mt 4365 3530 L
3387 3530 mt 3387 3196 L
3387 3530 mt 4365 3530 L
3387 3196 mt 4365 3196 L
3387 3530 mt 3387 3196 L
4365 3530 mt 4365 3196 L
3853 3331 mt 
(PR) s
gs 3387 3196 979 335 rc
24 w
c8
358 0 3458 3288 2 MP stroke
gr

24 w
c8
0 sg
3853 3480 mt 
(PR rand.) s
gs 3387 3196 979 335 rc
DA
c9
358 0 3458 3437 2 MP stroke
SO
6 w
gr

6 w
c9

end %%Color Dict

eplot
%%EndObject

epage
end

showpage

%%Trailer
%%EOF
